{
  "type": "service_account",
  "project_id": "litforeducation-e2c17",
  "private_key_id": "019deefa46faa66ca20055c2c9e08b586133549c",
  "private_key": "-----BEGIN PRIVATE KEY-----\nMIIEvgIBADANBgkqhkiG9w0BAQEFAASCBKgwggSkAgEAAoIBAQDkEHL4HCR3U5O3\nOHBC7n2XiJusG5uHS2jsAqSHoquJ1ffhIinw3GGuz/8jksjZ3DoBd6mFlkklLVAy\nhIAim3omrJpOOP8fz2b7xohj9pEhF6h73VxdTrs2nhQ3N+JT+w1f8c0fqIa/pmwg\nHqqLngLZAVGar4MvVhfcuo7+5l1I12xXMI9JPzBvshdwY/KfpQn+FY/XI0f6mSAO\nLNd4b5O8XvQqPxDOIxlPHikloY0NlTTUj3H/pSZHOHGxp4Jxn5Y/JUU5UwrvrlgW\nwc+gvkbcccMcl77gfzdy4i2kHeD4NvQXD9zwq9FH/DS7cTiG3Jp66GP7IcP12XGW\nxO7gUFPFAgMBAAECggEAE8RSNqt3xKjniW6YmlCB7a+fMIJfD1GrqSMMgB4LCKIV\nPzvfDzuGsuhfuIVZJ7rVAzoMJSIyukhsZkiCM52ur2nv4N5DTI5FIobhXOqqxwe+\nKGg2AHdZtiDq5yNOmFFO5jU2vmr0rOk/f2QxC3NZU1YwLLxQHjrzzAOWb8TnKnAp\nkTaBCKTYn2scxJPQCs5jmaLVDu+9sAZ2iA/rAxaQXRatAuxAZA3hzcSwl57mQnas\ni6iI5pCm0mu9utmh6B1a2VIZ5CFav06Q8OeGziBe4erJ6IovhtoYSRCPDIKj5AEK\nap7pTbw4Tlbtyb19nzbTD8YpfvB/UCpnNQswXkADWQKBgQD5hY7xf13xKCWJo3oR\nwrkUOjVuC8o2783RM1fLZVyGtYrmjl7JaWTxyBMFl5JiXWV5HmhRx+lykK/gqIru\n5Qq/wRIfpjF3/1Iem6SOuh76kmyCxDX4Uf9PdZ5YP2ivYbGC8V0UwqpbhdIO6ckT\nP9fzYNQODnNkmcgSoJX9MhgXKQKBgQDp/EYsMrysY7etDuD+l23lhE89Tsms/U/a\nDCxUgq7X6BnkujThd/9LxFwCW/oxWm97bdB6p4AmLv+hbNTtsoouSgXjGYC901VU\nQ6AOIrlv8qXLAYrGDETWe/teootf6W2AwZYqufy518lymMGxwf1lQ4KBKcKs+5EL\nVu1uBvE3PQKBgHwfhTj66+df2jR6vumA3QKD5jpE4SWs6sxrZvwGAx37xwnjvqEg\nrZdcuKGqgaYu4aB7kNdFxAo6kVMHZH1sMIms6HAYAzm3J8mUESryySBKoHH4WwSY\n/ZEwaEFr4Y6E4YHKwUvnfkki65iBkYXi13D5NON9Ksfbe9xQR+x48+TpAoGBALSs\njM7iGpgOo6youYk9CqnYQYt4g/fk3bzj+3MCOdoTqbLZKa4UB3jM1bMorIdhaoXn\nZLzhC+3wConuTHiCjXpyxBr4/VUWk2Pul+9yVrgfqG+Z8Ds/DASGVbJcVryntVtf\noAG7/W7PNgkb9Sy6O1zvBR2RTnZeBkC4TbvQ9n+NAoGBANy2iyAMQhO3ZlNLjFLM\njOHpsecWKM8IZx+QWxpX9PmRyECSc/09jT5sNDH9vA//68cCR46TA58Es9geUwaH\n7NSZvI3wR2ES2i+SiiUn3t4DyvH0OmBp4AuYJIxt9/ieM9mTCOQhRBVYfh0AamGz\nVbrScHXrue2APFexiZgjXYzm\n-----END PRIVATE KEY-----\n",
  "client_email": "firebase-adminsdk-6wsla@litforeducation-e2c17.iam.gserviceaccount.com",
  "client_id": "117193537834440095525",
  "auth_uri": "https://accounts.google.com/o/oauth2/auth",
  "token_uri": "https://oauth2.googleapis.com/token",
  "auth_provider_x509_cert_url": "https://www.googleapis.com/oauth2/v1/certs",
  "client_x509_cert_url": "https://www.googleapis.com/robot/v1/metadata/x509/firebase-adminsdk-6wsla%40litforeducation-e2c17.iam.gserviceaccount.com"
}
