id;name;language;subject;from;text;code;tenant_type
1;RegistrazioneUtente;IT;Creazione Account CMS;noreply@cms.imat2006.it;registrazione_account_utente_it.html;ACCOUNT_REGISTRATION;DEFAULT
2;ResetPassword;IT;Reset Password Account CMS;noreply@cms.imat2006.it;richiesta_password_dimenticata_it.html;FORGOT_PASSWORD_REQUEST;DEFAULT
3;ChangePassword;IT;Change Password Account CMS;noreply@cms.imat2006.it;richiesta_cambio_password_it.html;CHANGE_PASSWORD_REQUEST;DEFAULT
4;TrainingToolAssigned;IT;Training Tool Assigned;noreply@cms.imat2006.it;training_tool_assigned_it.html;TRAINING_TOOL_ASSIGNED;DEFAULT
5;TrainingToolVerified;IT;Training Tool Verified;noreply@cms.imat2006.it;training_tool_verified_it.html;TRAINING_TOOL_VERIFIED;DEFAULT
6;TrainingToolClosed;IT;Training Tool Closed;noreply@cms.imat2006.it;training_tool_closed_it.html;TRAINING_TOOL_CLOSED;DEFAULT
7;TrainingToolAdhesion;IT;Training Tool Adhesion;noreply@cms.imat2006.it;training_tool_adhesion_it.html;TRAINING_TOOL_ADHESION;DEFAULT
