id;compagnia_id;descrizione;descrizione_en;min;max
1;1;<40;<40;0;40
2;1;tra 40 e 50;between 40 and 50;40;50
3;1;tra 50 e 60;between 50 and 60;50;60
4;1;tra 60 e 70;between 60 and 70;60;70
5;1;>70;>70;70;100
